7011:0.016125, 7358:0.013896, 2574:0.010523, 10003:0.009458, 11418:0.009337, 7365:0.007872, 6120:0.006937, 11020:0.006317, 316:0.006223, 9059:0.006029, 5399:0.005702, 7579:0.005244, 8140:0.004858, 8628:0.004713, 7969:0.004552, 7874:0.004449, 6836:0.004308, 4270:0.004303, 1770:0.004301, 1768:0.004104, 9402:0.004049, 11183:0.003964, 10416:0.003773, 12263:0.003673, 5344:0.003466, 5118:0.003239, 10472:0.003224, 8370:0.003172, 540:0.003075, 11901:0.003010, 3915:0.002991, 3686:0.002916, 8051:0.002841, 3750:0.002827, 11078:0.002807, 3916:0.002793, 3603:0.002758, 1760:0.002650, 5120:0.002610, 6093:0.002512, 11417:0.002497, 4803:0.002479, 8623:0.002473, 11719:0.002415, 8513:0.002278, 7349:0.002269, 6981:0.002244, 6229:0.002220, 6186:0.002214, 9306:0.002156, 4854:0.002143, 7600:0.002115, 9879:0.001979, 3080:0.001962, 7623:0.001955, 2221:0.001950, 6245:0.001930, 4345:0.001894, 4146:0.001833, 8606:0.001805, 11025:0.001794, 532:0.001779, 9973:0.001750, 10721:0.001748, 6329:0.001722, 7484:0.001722, 428:0.001714, 11857:0.001703, 7949:0.001691, 2626:0.001685, 12153:0.001669, 8640:0.001666, 2023:0.001635, 10620:0.001614, 10217:0.001576, 958:0.001572, 2750:0.001546, 8986:0.001542, 3632:0.001531, 5263:0.001519, 5884:0.001494, 6115:0.001476, 9303:0.001473, 7787:0.001464, 8622:0.001463, 8968:0.001438, 9712:0.001419, 10442:0.001417, 9715:0.001400, 941:0.001398, 3057:0.001394, 9010:0.001380, 6700:0.001367, 6996:0.001355, 1762:0.001348, 6609:0.001335, 5933:0.001313, 8008:0.001312, 88:0.001308, 4953:0.001291
6120:0.012453, 11020:0.009202, 4270:0.009194, 7358:0.008314, 7365:0.007826, 316:0.007434, 2260:0.006964, 126:0.006481, 7011:0.006400, 1729:0.006146, 5399:0.005924, 7874:0.005388, 2503:0.004895, 415:0.004645, 1665:0.004559, 8628:0.004298, 9402:0.004097, 8385:0.003942, 10620:0.003622, 7579:0.003569, 7391:0.003508, 9206:0.003386, 10003:0.003252, 11078:0.003181, 6836:0.003112, 7766:0.003068, 3240:0.003063, 10583:0.002959, 12153:0.002884, 3603:0.002797, 11857:0.002667, 2574:0.002654, 9556:0.002630, 2263:0.002584, 10416:0.002522, 8140:0.002364, 2051:0.002267, 6796:0.002257, 5164:0.002250, 10145:0.002225, 7969:0.002125, 1537:0.002118, 540:0.002115, 12018:0.002109, 9010:0.002090, 3534:0.002078, 3563:0.002023, 2056:0.001997, 8640:0.001990, 532:0.001979, 158:0.001968, 9456:0.001943, 574:0.001932, 5344:0.001931, 11901:0.001914, 12042:0.001912, 8370:0.001874, 6093:0.001865, 6244:0.001860, 7118:0.001835, 6056:0.001834, 1482:0.001822, 4810:0.001784, 6245:0.001770, 10217:0.001764, 3979:0.001762, 11244:0.001746, 4490:0.001736, 7949:0.001724, 6115:0.001673, 7787:0.001658, 1128:0.001654, 6329:0.001645, 2378:0.001617, 8044:0.001615, 2626:0.001614, 8637:0.001609, 6186:0.001608, 7349:0.001606, 11719:0.001596, 8427:0.001595, 3375:0.001590, 1154:0.001539, 245:0.001515, 10368:0.001489, 9879:0.001473, 7476:0.001470, 8665:0.001449, 4177:0.001435, 7963:0.001424, 8968:0.001415, 2804:0.001407, 2052:0.001406, 11421:0.001400, 6477:0.001398, 4296:0.001386, 2192:0.001384, 10648:0.001381, 4146:0.001359, 4534:0.001356
2586:0.006782, 6862:0.006690, 5763:0.005255, 1652:0.005201, 8336:0.004441, 8197:0.004064, 4311:0.003847, 9480:0.003530, 1171:0.003513, 10352:0.003272, 8334:0.003236, 794:0.003181, 3593:0.003073, 11236:0.002801, 8059:0.002712, 470:0.002498, 12207:0.002450, 5265:0.002254, 3470:0.002245, 7373:0.002211, 453:0.002206, 9552:0.002130, 10631:0.002105, 12039:0.002016, 4313:0.001955, 6135:0.001954, 1698:0.001824, 4494:0.001800, 6600:0.001796, 11858:0.001781, 4310:0.001773, 11745:0.001761, 8516:0.001733, 10621:0.001660, 10761:0.001646, 5918:0.001612, 5717:0.001608, 12038:0.001598, 293:0.001573, 1342:0.001526, 6622:0.001520, 11181:0.001517, 12092:0.001507, 8337:0.001492, 9875:0.001486, 2557:0.001485, 6507:0.001471, 11544:0.001455, 306:0.001441, 928:0.001437, 5187:0.001411, 6091:0.001365, 9910:0.001348, 11915:0.001337, 4983:0.001334, 9843:0.001299, 8276:0.001285, 8930:0.001274, 43:0.001249, 451:0.001248, 1036:0.001244, 8946:0.001241, 6001:0.001239, 12075:0.001217, 12040:0.001212, 5919:0.001206, 5764:0.001205, 11289:0.001180, 7221:0.001177, 3297:0.001143, 5778:0.001121, 6973:0.001115, 5781:0.001114, 5198:0.001110, 8001:0.001099, 6991:0.001097, 2592:0.001089, 11337:0.001068, 6898:0.001052, 7228:0.001039, 10327:0.001037, 7088:0.001032, 5753:0.001028, 4489:0.001018, 11328:0.001014, 1204:0.001002, 6292:0.000999, 148:0.000994, 1622:0.000992, 9827:0.000992, 3909:0.000963, 9734:0.000947, 11177:0.000943, 7143:0.000923, 10184:0.000923, 12368:0.000921, 1081:0.000918, 10319:0.000914, 1593:0.000912, 4363:0.000912
7358:0.016272, 4270:0.013542, 6120:0.011511, 12153:0.009362, 316:0.008876, 3603:0.008799, 11719:0.008105, 10003:0.007938, 5399:0.007413, 11418:0.006732, 8628:0.006562, 2574:0.006117, 11901:0.005827, 7365:0.005747, 7579:0.005498, 9402:0.005451, 3080:0.005218, 7874:0.005072, 7011:0.005046, 6836:0.004976, 7969:0.004646, 1482:0.004447, 8370:0.004416, 4803:0.004242, 11161:0.004063, 6245:0.004030, 6742:0.003967, 11020:0.003617, 7787:0.003486, 8623:0.003395, 5344:0.003206, 6676:0.003184, 4345:0.003146, 10368:0.003112, 7476:0.003106, 8051:0.003083, 3563:0.003061, 1213:0.003038, 554:0.002989, 4534:0.002785, 11857:0.002644, 6056:0.002630, 4378:0.002373, 7349:0.002329, 10254:0.002313, 7766:0.002302, 8940:0.002234, 11876:0.002226, 10416:0.002176, 12383:0.002132, 6093:0.002117, 10305:0.002116, 11215:0.002103, 10620:0.002092, 7949:0.002066, 1760:0.002048, 11209:0.002017, 6329:0.001981, 7484:0.001956, 2175:0.001902, 4372:0.001876, 8140:0.001873, 4146:0.001839, 4047:0.001839, 10145:0.001837, 6358:0.001812, 3979:0.001809, 8968:0.001796, 3686:0.001770, 2276:0.001757, 2943:0.001733, 540:0.001732, 7538:0.001718, 3628:0.001715, 11078:0.001703, 8513:0.001659, 10217:0.001656, 822:0.001640, 428:0.001603, 10181:0.001601, 6244:0.001596, 2023:0.001564, 2192:0.001562, 8637:0.001550, 9306:0.001546, 2051:0.001534, 10568:0.001518, 3240:0.001516, 2676:0.001503, 2095:0.001492, 11183:0.001481, 4013:0.001461, 2944:0.001453, 2015:0.001429, 10201:0.001423, 9649:0.001417, 11244:0.001393, 11877:0.001370, 8640:0.001351, 11075:0.001339
7358:0.018817, 9549:0.011257, 7365:0.009028, 6796:0.008892, 2698:0.006301, 10703:0.005220, 4803:0.004545, 5399:0.004527, 4546:0.004495, 2866:0.003679, 1602:0.003600, 643:0.003585, 11719:0.003553, 10557:0.003514, 809:0.003199, 6042:0.003022, 1603:0.002994, 6046:0.002978, 372:0.002852, 4449:0.002754, 4398:0.002719, 8475:0.002694, 3240:0.002681, 8396:0.002672, 11904:0.002583, 7391:0.002558, 6135:0.002370, 3077:0.002309, 6672:0.002307, 2151:0.002294, 5042:0.002230, 10610:0.002190, 1774:0.002188, 9863:0.002129, 6343:0.002128, 3193:0.002120, 10976:0.002109, 1646:0.001987, 11020:0.001974, 4120:0.001958, 6056:0.001921, 7349:0.001906, 3730:0.001896, 6422:0.001879, 2586:0.001859, 7011:0.001856, 9101:0.001753, 6047:0.001687, 2388:0.001654, 10549:0.001612, 10879:0.001601, 1835:0.001596, 7286:0.001577, 12153:0.001555, 12171:0.001530, 6588:0.001523, 5626:0.001500, 11191:0.001497, 5118:0.001497, 8386:0.001476, 10003:0.001448, 1087:0.001417, 7787:0.001401, 5316:0.001399, 5833:0.001382, 3106:0.001371, 5763:0.001364, 6163:0.001360, 133:0.001342, 9010:0.001318, 12141:0.001273, 2095:0.001264, 9165:0.001257, 6181:0.001243, 7579:0.001232, 4547:0.001228, 2056:0.001210, 6034:0.001201, 6115:0.001200, 6182:0.001193, 5177:0.001187, 6118:0.001186, 7484:0.001172, 2961:0.001166, 6140:0.001156, 1402:0.001155, 11960:0.001145, 10245:0.001144, 10978:0.001143, 4312:0.001142, 5291:0.001118, 5370:0.001113, 808:0.001082, 7842:0.001077, 4735:0.001047, 5265:0.001047, 2847:0.001047, 2153:0.001041, 5502:0.001040, 9571:0.001040
10472:0.014286, 7358:0.013141, 10145:0.005447, 12058:0.005345, 6046:0.005080, 111:0.004937, 6120:0.004003, 9306:0.003939, 10976:0.003910, 10387:0.003882, 779:0.003570, 8296:0.003341, 5344:0.003320, 4709:0.003290, 6181:0.003042, 8648:0.002984, 5399:0.002962, 10406:0.002954, 2189:0.002942, 7365:0.002941, 634:0.002932, 3603:0.002922, 10721:0.002890, 11719:0.002839, 3240:0.002679, 6047:0.002542, 10973:0.002540, 7228:0.002524, 4546:0.002448, 2204:0.002368, 7349:0.002343, 10693:0.002313, 4177:0.002292, 12263:0.002265, 2574:0.002255, 8235:0.002224, 4704:0.002133, 2153:0.002062, 1601:0.002051, 8725:0.001992, 635:0.001992, 2221:0.001933, 4153:0.001924, 7124:0.001881, 2260:0.001880, 5856:0.001775, 6257:0.001763, 2503:0.001701, 3467:0.001689, 7540:0.001685, 1762:0.001675, 10778:0.001669, 7229:0.001668, 4232:0.001650, 10514:0.001645, 7538:0.001617, 2341:0.001606, 3916:0.001597, 7157:0.001595, 3493:0.001580, 7874:0.001575, 3423:0.001573, 7117:0.001559, 7579:0.001529, 3476:0.001518, 9402:0.001514, 1501:0.001504, 10974:0.001497, 4953:0.001448, 6781:0.001435, 2023:0.001433, 3270:0.001432, 3750:0.001432, 945:0.001425, 11417:0.001423, 6186:0.001418, 8003:0.001407, 8230:0.001402, 10320:0.001397, 11838:0.001393, 6093:0.001378, 2239:0.001361, 5370:0.001359, 1890:0.001349, 9336:0.001330, 3057:0.001328, 10442:0.001321, 8002:0.001317, 12027:0.001301, 4386:0.001298, 3226:0.001280, 8644:0.001270, 9877:0.001257, 4810:0.001249, 9059:0.001230, 1117:0.001223, 1497:0.001213, 8427:0.001212, 9956:0.001210, 1941:0.001210
7391:0.021095, 7011:0.011756, 5399:0.011186, 10993:0.010212, 10498:0.008738, 1537:0.008036, 7358:0.007093, 8461:0.006429, 6787:0.006150, 10145:0.005690, 4034:0.005631, 9382:0.005610, 10992:0.005158, 7874:0.004898, 10406:0.004561, 8968:0.004372, 8051:0.004368, 4232:0.004357, 12042:0.004201, 2503:0.003680, 137:0.003647, 11719:0.003604, 11020:0.003365, 10201:0.003249, 10499:0.003210, 10991:0.003103, 10644:0.003065, 11161:0.003041, 7579:0.003011, 5363:0.003006, 2736:0.002964, 11244:0.002835, 1601:0.002797, 9402:0.002760, 6757:0.002737, 8209:0.002711, 4270:0.002695, 5365:0.002684, 3308:0.002665, 7476:0.002653, 6186:0.002632, 5344:0.002631, 10217:0.002613, 3983:0.002601, 9383:0.002569, 11415:0.002550, 2151:0.002530, 8947:0.002330, 7365:0.002307, 8706:0.002296, 779:0.002274, 8568:0.002256, 8454:0.002062, 9165:0.002045, 2102:0.002027, 10643:0.002017, 7035:0.002008, 8640:0.002004, 3700:0.001976, 8822:0.001966, 6222:0.001965, 7969:0.001938, 6407:0.001936, 8151:0.001925, 8561:0.001829, 4318:0.001820, 10500:0.001807, 5506:0.001785, 4001:0.001757, 3967:0.001743, 6093:0.001733, 11134:0.001719, 11286:0.001701, 6333:0.001701, 7843:0.001663, 409:0.001656, 1729:0.001654, 7403:0.001643, 2698:0.001629, 7345:0.001610, 1849:0.001588, 7787:0.001558, 12153:0.001551, 9047:0.001550, 5936:0.001538, 11453:0.001538, 7842:0.001536, 10464:0.001521, 8785:0.001518, 7723:0.001514, 4810:0.001496, 849:0.001496, 7157:0.001485, 8046:0.001476, 6140:0.001463, 10689:0.001456, 10642:0.001448, 5532:0.001438, 2103:0.001437, 10435:0.001428
7358:0.028007, 5399:0.012210, 6093:0.009643, 7365:0.008767, 11719:0.007773, 7874:0.007767, 133:0.007052, 11020:0.005934, 8051:0.005617, 12153:0.005484, 7349:0.005014, 2151:0.004617, 7473:0.004536, 2574:0.004430, 11418:0.004233, 316:0.004198, 3603:0.004182, 9654:0.003966, 1537:0.003952, 2153:0.003924, 3979:0.003634, 9306:0.003630, 1610:0.003544, 7471:0.003461, 6120:0.003342, 7011:0.003261, 4803:0.003215, 5344:0.003159, 6186:0.002982, 574:0.002946, 8640:0.002791, 4270:0.002779, 8628:0.002713, 11075:0.002672, 8702:0.002588, 10003:0.002496, 3660:0.002384, 9059:0.002337, 9402:0.002304, 10620:0.002238, 8140:0.002148, 7391:0.002111, 4288:0.002028, 11901:0.002024, 7579:0.002021, 6115:0.002015, 2961:0.001964, 1768:0.001960, 3240:0.001957, 11417:0.001941, 12263:0.001928, 3077:0.001862, 11078:0.001854, 10149:0.001765, 6836:0.001760, 2932:0.001752, 9649:0.001730, 6329:0.001695, 2204:0.001693, 2341:0.001681, 2698:0.001622, 8370:0.001581, 9840:0.001556, 5933:0.001552, 4598:0.001538, 3547:0.001514, 4146:0.001500, 3756:0.001479, 2012:0.001457, 2260:0.001441, 7949:0.001433, 3750:0.001431, 62:0.001427, 1482:0.001389, 9303:0.001356, 3915:0.001355, 8968:0.001352, 6715:0.001343, 2242:0.001323, 2182:0.001310, 9101:0.001295, 4676:0.001294, 7963:0.001272, 1543:0.001265, 8139:0.001261, 532:0.001233, 3916:0.001232, 10217:0.001222, 6056:0.001217, 10145:0.001214, 2828:0.001210, 2056:0.001192, 9165:0.001178, 10472:0.001171, 8548:0.001171, 2491:0.001145, 1770:0.001142, 2944:0.001133, 9576:0.001132, 7600:0.001113
7011:0.011941, 7358:0.010444, 1537:0.008976, 5399:0.008669, 7391:0.007778, 12001:0.007497, 11020:0.006338, 11719:0.005874, 8051:0.005182, 7365:0.004894, 137:0.004747, 9402:0.004246, 3979:0.004167, 7600:0.004127, 6093:0.004115, 6120:0.003824, 2961:0.003677, 5344:0.003593, 10145:0.003479, 2023:0.003437, 10644:0.003433, 4270:0.003429, 2368:0.003385, 8370:0.003369, 9382:0.003316, 2574:0.003278, 7118:0.003259, 10435:0.003258, 5118:0.003239, 7874:0.003175, 7811:0.003107, 10003:0.003099, 9306:0.002940, 6579:0.002895, 3983:0.002809, 2370:0.002779, 11134:0.002719, 2151:0.002664, 428:0.002544, 2353:0.002535, 7787:0.002509, 10217:0.002505, 7476:0.002505, 3826:0.002450, 3240:0.002392, 10416:0.002358, 8427:0.002355, 8640:0.002344, 10181:0.002331, 3915:0.002317, 4232:0.002294, 4034:0.002282, 11075:0.002191, 3916:0.002190, 8209:0.002149, 3308:0.002139, 9046:0.002125, 10993:0.002037, 11418:0.001995, 10759:0.001984, 11965:0.001982, 1245:0.001981, 1543:0.001931, 4146:0.001909, 8968:0.001900, 3080:0.001887, 10174:0.001870, 133:0.001870, 11857:0.001869, 6329:0.001862, 9165:0.001847, 12153:0.001846, 7969:0.001839, 6343:0.001826, 1482:0.001811, 6245:0.001778, 5120:0.001774, 990:0.001774, 11901:0.001765, 2252:0.001758, 3563:0.001751, 4001:0.001741, 10643:0.001736, 10201:0.001677, 10498:0.001661, 6742:0.001632, 3700:0.001615, 6186:0.001601, 7484:0.001598, 6140:0.001558, 5263:0.001550, 9383:0.001530, 2095:0.001527, 8411:0.001492, 2192:0.001475, 9303:0.001456, 9059:0.001452, 10721:0.001433, 3750:0.001405, 11215:0.001394
7011:0.018188, 7136:0.010612, 7365:0.009982, 7124:0.007314, 7358:0.007090, 6120:0.007013, 7391:0.006573, 11020:0.005838, 12048:0.005089, 4736:0.004673, 3826:0.004636, 2260:0.004545, 5399:0.004508, 3240:0.003734, 11907:0.003675, 4296:0.003295, 3926:0.003153, 6174:0.003117, 5401:0.003069, 5502:0.002980, 2151:0.002966, 6796:0.002872, 990:0.002750, 4270:0.002714, 6186:0.002561, 8427:0.002445, 9606:0.002435, 9382:0.002433, 7600:0.002343, 10201:0.002315, 8051:0.002284, 7222:0.002227, 1537:0.002224, 1598:0.002189, 6757:0.002075, 8209:0.002070, 10659:0.002069, 1565:0.002046, 7579:0.002012, 6390:0.001989, 6143:0.001947, 4835:0.001937, 5506:0.001920, 9147:0.001859, 11161:0.001844, 9952:0.001809, 1941:0.001809, 4121:0.001803, 9649:0.001802, 5370:0.001778, 4803:0.001747, 9306:0.001724, 11719:0.001714, 2263:0.001676, 2192:0.001657, 464:0.001604, 6140:0.001595, 7615:0.001575, 10198:0.001573, 10719:0.001493, 6791:0.001484, 7346:0.001481, 7642:0.001433, 9555:0.001432, 3308:0.001432, 11944:0.001427, 3967:0.001425, 717:0.001421, 11587:0.001417, 3077:0.001392, 2099:0.001372, 9576:0.001370, 8967:0.001369, 7787:0.001361, 6222:0.001358, 8046:0.001349, 11945:0.001332, 5344:0.001328, 7223:0.001316, 8561:0.001314, 9402:0.001308, 5934:0.001290, 10176:0.001287, 5456:0.001276, 5495:0.001276, 1564:0.001264, 2413:0.001255, 4034:0.001250, 7661:0.001244, 7133:0.001221, 2698:0.001220, 8140:0.001202, 9303:0.001202, 8647:0.001200, 4127:0.001197, 4232:0.001195, 6407:0.001192, 11290:0.001176, 4676:0.001176, 5476:0.001164
